(module STANDARD-FIDUCIAL (layer F.Cu) (tedit 5A5F1359)
  (fp_text reference REF** (at 0 2) (layer F.SilkS)
    (effects (font (size 1 1) (thickness 0.15)))
  )
  (fp_text value STANDARD-FIDUCIAL (at 0 -0.5) (layer F.Fab) hide
    (effects (font (size 1 1) (thickness 0.15)))
  )
  (pad ~ smd circle (at 0 0) (size 1 1) (layers F.Cu F.Mask)
    (solder_mask_margin 0.5) (clearance 0.5))
)
