(kicad_symbol_lib (version 20211014) (generator kicad_symbol_editor)
  (symbol "74164" (pin_names (offset 1.016)) (in_bom yes) (on_board yes)
    (property "Reference" "U" (id 0) (at 0 -12.7 0)
      (effects (font (size 1.524 1.524)))
    )
    (property "Value" "74164" (id 1) (at 0 12.7 0)
      (effects (font (size 1.524 1.524)))
    )
    (property "Footprint" "" (id 2) (at 0 0 0)
      (effects (font (size 1.524 1.524)))
    )
    (property "Datasheet" "" (id 3) (at 0 0 0)
      (effects (font (size 1.524 1.524)))
    )
    (symbol "74164_0_1"
      (rectangle (start -7.62 10.16) (end 7.62 -10.16)
        (stroke (width 0) (type default) (color 0 0 0 0))
        (fill (type none))
      )
    )
    (symbol "74164_1_1"
      (pin input line (at -12.7 7.62 0) (length 5.08)
        (name "A" (effects (font (size 1.27 1.27))))
        (number "1" (effects (font (size 1.27 1.27))))
      )
      (pin output line (at 12.7 -2.54 180) (length 5.08)
        (name "QE" (effects (font (size 1.27 1.27))))
        (number "10" (effects (font (size 1.27 1.27))))
      )
      (pin output line (at 12.7 0 180) (length 5.08)
        (name "QF" (effects (font (size 1.27 1.27))))
        (number "11" (effects (font (size 1.27 1.27))))
      )
      (pin output line (at 12.7 2.54 180) (length 5.08)
        (name "QG" (effects (font (size 1.27 1.27))))
        (number "12" (effects (font (size 1.27 1.27))))
      )
      (pin output line (at 12.7 5.08 180) (length 5.08)
        (name "QH" (effects (font (size 1.27 1.27))))
        (number "13" (effects (font (size 1.27 1.27))))
      )
      (pin power_in line (at 12.7 7.62 180) (length 5.08)
        (name "VCC" (effects (font (size 1.27 1.27))))
        (number "14" (effects (font (size 1.27 1.27))))
      )
      (pin input line (at -12.7 5.08 0) (length 5.08)
        (name "B" (effects (font (size 1.27 1.27))))
        (number "2" (effects (font (size 1.27 1.27))))
      )
      (pin output line (at -12.7 2.54 0) (length 5.08)
        (name "QA" (effects (font (size 1.27 1.27))))
        (number "3" (effects (font (size 1.27 1.27))))
      )
      (pin output line (at -12.7 0 0) (length 5.08)
        (name "QB" (effects (font (size 1.27 1.27))))
        (number "4" (effects (font (size 1.27 1.27))))
      )
      (pin output line (at -12.7 -2.54 0) (length 5.08)
        (name "QC" (effects (font (size 1.27 1.27))))
        (number "5" (effects (font (size 1.27 1.27))))
      )
      (pin output line (at -12.7 -5.08 0) (length 5.08)
        (name "QD" (effects (font (size 1.27 1.27))))
        (number "6" (effects (font (size 1.27 1.27))))
      )
      (pin power_in line (at -12.7 -7.62 0) (length 5.08)
        (name "GND" (effects (font (size 1.27 1.27))))
        (number "7" (effects (font (size 1.27 1.27))))
      )
      (pin input line (at 12.7 -7.62 180) (length 5.08)
        (name "CLK" (effects (font (size 1.27 1.27))))
        (number "8" (effects (font (size 1.27 1.27))))
      )
      (pin input line (at 12.7 -5.08 180) (length 5.08)
        (name "~{CLR}" (effects (font (size 1.27 1.27))))
        (number "9" (effects (font (size 1.27 1.27))))
      )
    )
  )
  (symbol "74LVC1G123" (pin_names (offset 1.016)) (in_bom yes) (on_board yes)
    (property "Reference" "U" (id 0) (at 3.81 -6.35 0)
      (effects (font (size 1.524 1.524)))
    )
    (property "Value" "74LVC1G123" (id 1) (at 0 6.35 0)
      (effects (font (size 1.524 1.524)))
    )
    (property "Footprint" "" (id 2) (at 0 0 0)
      (effects (font (size 1.524 1.524)) hide)
    )
    (property "Datasheet" "" (id 3) (at 0 0 0)
      (effects (font (size 1.524 1.524)) hide)
    )
    (property "ki_description" "Single Retriggerable Monostable Multivibrator" (id 4) (at 0 0 0)
      (effects (font (size 1.27 1.27)) hide)
    )
    (symbol "74LVC1G123_0_0"
      (pin power_in line (at 0 -5.08 90) (length 0) hide
        (name "GND" (effects (font (size 1.27 1.27))))
        (number "4" (effects (font (size 1.27 1.27))))
      )
      (pin power_in line (at 0 5.08 270) (length 0) hide
        (name "VCC" (effects (font (size 1.27 1.27))))
        (number "8" (effects (font (size 1.27 1.27))))
      )
    )
    (symbol "74LVC1G123_0_1"
      (rectangle (start 7.62 5.08) (end -7.62 -5.08)
        (stroke (width 0) (type default) (color 0 0 0 0))
        (fill (type none))
      )
    )
    (symbol "74LVC1G123_1_1"
      (pin input line (at -12.7 2.54 0) (length 5.08)
        (name "~{A}" (effects (font (size 1.27 1.27))))
        (number "1" (effects (font (size 1.27 1.27))))
      )
      (pin input line (at -12.7 0 0) (length 5.08)
        (name "B" (effects (font (size 1.27 1.27))))
        (number "2" (effects (font (size 1.27 1.27))))
      )
      (pin input line (at -12.7 -2.54 0) (length 5.08)
        (name "~{CLR}" (effects (font (size 1.27 1.27))))
        (number "3" (effects (font (size 1.27 1.27))))
      )
      (pin input line (at 12.7 -2.54 180) (length 5.08)
        (name "Q" (effects (font (size 1.27 1.27))))
        (number "5" (effects (font (size 1.27 1.27))))
      )
      (pin input line (at 12.7 0 180) (length 5.08)
        (name "Cext" (effects (font (size 1.27 1.27))))
        (number "6" (effects (font (size 1.27 1.27))))
      )
      (pin input line (at 12.7 2.54 180) (length 5.08)
        (name "RCext" (effects (font (size 1.27 1.27))))
        (number "7" (effects (font (size 1.27 1.27))))
      )
    )
  )
  (symbol "74LVC1G175G(WV)" (pin_names (offset 1.016)) (in_bom yes) (on_board yes)
    (property "Reference" "U" (id 0) (at 3.81 -5.08 0)
      (effects (font (size 1.524 1.524)))
    )
    (property "Value" "74LVC1G175G(WV)" (id 1) (at 1.27 5.08 0)
      (effects (font (size 1.524 1.524)))
    )
    (property "Footprint" "" (id 2) (at 0 0 0)
      (effects (font (size 1.524 1.524)) hide)
    )
    (property "Datasheet" "" (id 3) (at 0 0 0)
      (effects (font (size 1.524 1.524)) hide)
    )
    (property "ki_description" "Single +ve edge D-Type Flip-Flop w/CLR, SOT353-1 and SOT753 packages" (id 4) (at 0 0 0)
      (effects (font (size 1.27 1.27)) hide)
    )
    (symbol "74LVC1G175G(WV)_0_1"
      (rectangle (start 5.08 3.81) (end -5.08 -3.81)
        (stroke (width 0) (type default) (color 0 0 0 0))
        (fill (type none))
      )
    )
    (symbol "74LVC1G175G(WV)_1_1"
      (pin input line (at -10.16 1.27 0) (length 5.08)
        (name "CP" (effects (font (size 1.27 1.27))))
        (number "1" (effects (font (size 1.27 1.27))))
      )
      (pin input line (at -10.16 -1.27 0) (length 5.08)
        (name "D" (effects (font (size 1.27 1.27))))
        (number "2" (effects (font (size 1.27 1.27))))
      )
      (pin power_in line (at 0 -10.16 90) (length 5.08) hide
        (name "GND" (effects (font (size 1.27 1.27))))
        (number "2" (effects (font (size 1.27 1.27))))
      )
      (pin output line (at 10.16 -1.27 180) (length 5.08)
        (name "Q" (effects (font (size 1.27 1.27))))
        (number "4" (effects (font (size 1.27 1.27))))
      )
      (pin power_in line (at 0 10.16 270) (length 5.08) hide
        (name "VCC" (effects (font (size 1.27 1.27))))
        (number "5" (effects (font (size 1.27 1.27))))
      )
      (pin input line (at 10.16 1.27 180) (length 5.08)
        (name "~{MR}" (effects (font (size 1.27 1.27))))
        (number "6" (effects (font (size 1.27 1.27))))
      )
    )
  )
  (symbol "74LVC1G79G(WV)" (pin_names (offset 1.016)) (in_bom yes) (on_board yes)
    (property "Reference" "U" (id 0) (at 3.81 -6.35 0)
      (effects (font (size 1.524 1.524)))
    )
    (property "Value" "74LVC1G79G(WV)" (id 1) (at 0 6.35 0)
      (effects (font (size 1.524 1.524)))
    )
    (property "Footprint" "" (id 2) (at 0 0 0)
      (effects (font (size 1.524 1.524)) hide)
    )
    (property "Datasheet" "" (id 3) (at 0 0 0)
      (effects (font (size 1.524 1.524)) hide)
    )
    (property "ki_description" "Single D-Type Flip-Flop, SOT353-1 and SOT753 packages" (id 4) (at 0 0 0)
      (effects (font (size 1.27 1.27)) hide)
    )
    (symbol "74LVC1G79G(WV)_0_1"
      (rectangle (start 5.08 5.08) (end -5.08 -5.08)
        (stroke (width 0) (type default) (color 0 0 0 0))
        (fill (type none))
      )
    )
    (symbol "74LVC1G79G(WV)_1_1"
      (pin input line (at -10.16 2.54 0) (length 5.08)
        (name "D" (effects (font (size 1.27 1.27))))
        (number "1" (effects (font (size 1.27 1.27))))
      )
      (pin input line (at -10.16 -2.54 0) (length 5.08)
        (name "CP" (effects (font (size 1.27 1.27))))
        (number "2" (effects (font (size 1.27 1.27))))
      )
      (pin power_in line (at 10.16 -2.54 180) (length 5.08) hide
        (name "GND" (effects (font (size 1.27 1.27))))
        (number "3" (effects (font (size 1.27 1.27))))
      )
      (pin output line (at 10.16 0 180) (length 5.08)
        (name "Q" (effects (font (size 1.27 1.27))))
        (number "4" (effects (font (size 1.27 1.27))))
      )
      (pin power_in line (at 10.16 2.54 180) (length 5.08) hide
        (name "VCC" (effects (font (size 1.27 1.27))))
        (number "5" (effects (font (size 1.27 1.27))))
      )
    )
  )
)
