(kicad_symbol_lib (version 20211014) (generator kicad_symbol_editor)
  (symbol "A4988" (pin_names (offset 1.016)) (in_bom yes) (on_board yes)
    (property "Reference" "U" (id 0) (at 10.16 -12.7 0)
      (effects (font (size 1.524 1.524)))
    )
    (property "Value" "A4988" (id 1) (at -7.62 -12.7 0)
      (effects (font (size 1.524 1.524)))
    )
    (property "Footprint" "" (id 2) (at 0 -2.54 0)
      (effects (font (size 1.524 1.524)) hide)
    )
    (property "Datasheet" "" (id 3) (at 0 -2.54 0)
      (effects (font (size 1.524 1.524)) hide)
    )
    (symbol "A4988_0_1"
      (rectangle (start -11.43 11.43) (end 11.43 -11.43)
        (stroke (width 0) (type default) (color 0 0 0 0))
        (fill (type none))
      )
    )
    (symbol "A4988_1_1"
      (pin input line (at -16.51 8.89 0) (length 5.08)
        (name "~{ENABLE}" (effects (font (size 1.27 1.27))))
        (number "1" (effects (font (size 1.27 1.27))))
      )
      (pin power_in line (at 16.51 -6.35 180) (length 5.08)
        (name "Vlogic" (effects (font (size 1.27 1.27))))
        (number "10" (effects (font (size 1.27 1.27))))
      )
      (pin output line (at 16.51 -3.81 180) (length 5.08)
        (name "1B" (effects (font (size 1.27 1.27))))
        (number "11" (effects (font (size 1.27 1.27))))
      )
      (pin output line (at 16.51 -1.27 180) (length 5.08)
        (name "1A" (effects (font (size 1.27 1.27))))
        (number "12" (effects (font (size 1.27 1.27))))
      )
      (pin output line (at 16.51 1.27 180) (length 5.08)
        (name "2A" (effects (font (size 1.27 1.27))))
        (number "13" (effects (font (size 1.27 1.27))))
      )
      (pin output line (at 16.51 3.81 180) (length 5.08)
        (name "2B" (effects (font (size 1.27 1.27))))
        (number "14" (effects (font (size 1.27 1.27))))
      )
      (pin power_in line (at 16.51 6.35 180) (length 5.08)
        (name "GND" (effects (font (size 1.27 1.27))))
        (number "15" (effects (font (size 1.27 1.27))))
      )
      (pin power_in line (at 16.51 8.89 180) (length 5.08)
        (name "Vmot" (effects (font (size 1.27 1.27))))
        (number "16" (effects (font (size 1.27 1.27))))
      )
      (pin input line (at -16.51 6.35 0) (length 5.08)
        (name "MS1" (effects (font (size 1.27 1.27))))
        (number "2" (effects (font (size 1.27 1.27))))
      )
      (pin input line (at -16.51 3.81 0) (length 5.08)
        (name "MS2" (effects (font (size 1.27 1.27))))
        (number "3" (effects (font (size 1.27 1.27))))
      )
      (pin input line (at -16.51 1.27 0) (length 5.08)
        (name "MS3" (effects (font (size 1.27 1.27))))
        (number "4" (effects (font (size 1.27 1.27))))
      )
      (pin input line (at -16.51 -1.27 0) (length 5.08)
        (name "~{RESET}" (effects (font (size 1.27 1.27))))
        (number "5" (effects (font (size 1.27 1.27))))
      )
      (pin input line (at -16.51 -3.81 0) (length 5.08)
        (name "~{SLEEP}" (effects (font (size 1.27 1.27))))
        (number "6" (effects (font (size 1.27 1.27))))
      )
      (pin input line (at -16.51 -6.35 0) (length 5.08)
        (name "STEP" (effects (font (size 1.27 1.27))))
        (number "7" (effects (font (size 1.27 1.27))))
      )
      (pin input line (at -16.51 -8.89 0) (length 5.08)
        (name "DIR" (effects (font (size 1.27 1.27))))
        (number "8" (effects (font (size 1.27 1.27))))
      )
      (pin power_in line (at 16.51 -8.89 180) (length 5.08)
        (name "GND" (effects (font (size 1.27 1.27))))
        (number "9" (effects (font (size 1.27 1.27))))
      )
    )
  )
)
