(kicad_symbol_lib (version 20211014) (generator kicad_symbol_editor)
  (symbol "2PDT-2LED" (pin_names (offset 0) hide) (in_bom yes) (on_board yes)
    (property "Reference" "SW" (id 0) (at 0 11.43 0)
      (effects (font (size 1.778 1.778)))
    )
    (property "Value" "2PDT-2LED" (id 1) (at -1.27 -27.94 0)
      (effects (font (size 1.778 1.778)))
    )
    (property "Footprint" "" (id 2) (at 0 0 0)
      (effects (font (size 1.524 1.524)))
    )
    (property "Datasheet" "" (id 3) (at 0 0 0)
      (effects (font (size 1.524 1.524)))
    )
    (symbol "2PDT-2LED_0_1"
      (circle (center -3.81 -5.08) (radius 1.27)
        (stroke (width 0.2032) (type default) (color 0 0 0 0))
        (fill (type none))
      )
      (circle (center -3.81 5.08) (radius 1.27)
        (stroke (width 0.2032) (type default) (color 0 0 0 0))
        (fill (type none))
      )
      (polyline
        (pts
          (xy -8.89 -15.24)
          (xy -2.54 -15.24)
        )
        (stroke (width 0) (type default) (color 0 0 0 0))
        (fill (type none))
      )
      (polyline
        (pts
          (xy -5.08 -21.59)
          (xy -5.08 -15.24)
        )
        (stroke (width 0) (type default) (color 0 0 0 0))
        (fill (type none))
      )
      (polyline
        (pts
          (xy -2.54 -21.59)
          (xy -5.08 -21.59)
        )
        (stroke (width 0) (type default) (color 0 0 0 0))
        (fill (type none))
      )
      (polyline
        (pts
          (xy -2.54 -21.59)
          (xy 1.27 -19.05)
        )
        (stroke (width 0) (type default) (color 0 0 0 0))
        (fill (type none))
      )
      (polyline
        (pts
          (xy -2.54 -19.05)
          (xy -2.54 -24.13)
        )
        (stroke (width 0) (type default) (color 0 0 0 0))
        (fill (type none))
      )
      (polyline
        (pts
          (xy -2.54 -5.08)
          (xy 2.54 -2.54)
        )
        (stroke (width 0.2032) (type default) (color 0 0 0 0))
        (fill (type none))
      )
      (polyline
        (pts
          (xy -2.54 5.08)
          (xy 2.54 7.62)
        )
        (stroke (width 0.2032) (type default) (color 0 0 0 0))
        (fill (type none))
      )
      (polyline
        (pts
          (xy 0 -3.175)
          (xy 0 -3.81)
        )
        (stroke (width 0.2032) (type default) (color 0 0 0 0))
        (fill (type none))
      )
      (polyline
        (pts
          (xy 0 -2.54)
          (xy 0 -1.905)
        )
        (stroke (width 0.2032) (type default) (color 0 0 0 0))
        (fill (type none))
      )
      (polyline
        (pts
          (xy 0 -1.27)
          (xy 0 -0.635)
        )
        (stroke (width 0.2032) (type default) (color 0 0 0 0))
        (fill (type none))
      )
      (polyline
        (pts
          (xy 0 0)
          (xy 0 0.635)
        )
        (stroke (width 0.2032) (type default) (color 0 0 0 0))
        (fill (type none))
      )
      (polyline
        (pts
          (xy 0 1.27)
          (xy 0 1.905)
        )
        (stroke (width 0.2032) (type default) (color 0 0 0 0))
        (fill (type none))
      )
      (polyline
        (pts
          (xy 0 2.54)
          (xy 0 3.175)
        )
        (stroke (width 0.2032) (type default) (color 0 0 0 0))
        (fill (type none))
      )
      (polyline
        (pts
          (xy 0 3.81)
          (xy 0 4.445)
        )
        (stroke (width 0.2032) (type default) (color 0 0 0 0))
        (fill (type none))
      )
      (polyline
        (pts
          (xy 0 5.08)
          (xy 0 5.715)
        )
        (stroke (width 0.2032) (type default) (color 0 0 0 0))
        (fill (type none))
      )
      (polyline
        (pts
          (xy 1.27 -24.13)
          (xy -2.54 -21.59)
        )
        (stroke (width 0) (type default) (color 0 0 0 0))
        (fill (type none))
      )
      (polyline
        (pts
          (xy 1.27 -21.59)
          (xy 3.81 -21.59)
        )
        (stroke (width 0) (type default) (color 0 0 0 0))
        (fill (type none))
      )
      (polyline
        (pts
          (xy 1.27 -19.05)
          (xy 1.27 -24.13)
        )
        (stroke (width 0) (type default) (color 0 0 0 0))
        (fill (type none))
      )
      (polyline
        (pts
          (xy 1.27 -12.7)
          (xy 1.27 -17.78)
        )
        (stroke (width 0) (type default) (color 0 0 0 0))
        (fill (type none))
      )
      (polyline
        (pts
          (xy 3.81 -15.24)
          (xy 3.81 -21.59)
        )
        (stroke (width 0) (type default) (color 0 0 0 0))
        (fill (type none))
      )
      (polyline
        (pts
          (xy 8.89 -15.24)
          (xy 1.27 -15.24)
        )
        (stroke (width 0) (type default) (color 0 0 0 0))
        (fill (type none))
      )
      (polyline
        (pts
          (xy -2.54 -12.7)
          (xy -2.54 -17.78)
          (xy 1.27 -15.24)
          (xy -2.54 -12.7)
        )
        (stroke (width 0) (type default) (color 0 0 0 0))
        (fill (type none))
      )
      (circle (center 3.81 -7.62) (radius 1.27)
        (stroke (width 0.2032) (type default) (color 0 0 0 0))
        (fill (type none))
      )
      (circle (center 3.81 -2.54) (radius 1.27)
        (stroke (width 0.2032) (type default) (color 0 0 0 0))
        (fill (type none))
      )
      (circle (center 3.81 2.54) (radius 1.27)
        (stroke (width 0.2032) (type default) (color 0 0 0 0))
        (fill (type none))
      )
      (circle (center 3.81 7.62) (radius 1.27)
        (stroke (width 0.2032) (type default) (color 0 0 0 0))
        (fill (type none))
      )
    )
    (symbol "2PDT-2LED_1_1"
      (pin passive line (at 12.7 7.62 180) (length 7.5946)
        (name "e" (effects (font (size 1.778 1.778))))
        (number "1" (effects (font (size 1.778 1.778))))
      )
      (pin passive line (at -12.7 5.08 0) (length 7.5946)
        (name "2" (effects (font (size 1.778 1.778))))
        (number "2" (effects (font (size 1.778 1.778))))
      )
      (pin passive line (at 12.7 2.54 180) (length 7.5946)
        (name "3" (effects (font (size 1.778 1.778))))
        (number "3" (effects (font (size 1.778 1.778))))
      )
      (pin passive line (at 12.7 -2.54 180) (length 7.5946)
        (name "4" (effects (font (size 1.778 1.778))))
        (number "4" (effects (font (size 1.778 1.778))))
      )
      (pin passive line (at -12.7 -5.08 0) (length 7.5946)
        (name "5" (effects (font (size 1.778 1.778))))
        (number "5" (effects (font (size 1.778 1.778))))
      )
      (pin passive line (at 12.7 -7.62 180) (length 7.5946)
        (name "6" (effects (font (size 1.778 1.778))))
        (number "6" (effects (font (size 1.778 1.778))))
      )
      (pin bidirectional line (at -12.7 -15.24 0) (length 3.81)
        (name "~" (effects (font (size 1.27 1.27))))
        (number "7" (effects (font (size 1.27 1.27))))
      )
      (pin bidirectional line (at 12.7 -15.24 180) (length 3.81)
        (name "~" (effects (font (size 1.27 1.27))))
        (number "8" (effects (font (size 1.27 1.27))))
      )
    )
  )
  (symbol "2PDT-LED" (pin_names (offset 0) hide) (in_bom yes) (on_board yes)
    (property "Reference" "SW" (id 0) (at 0 11.43 0)
      (effects (font (size 1.778 1.778)))
    )
    (property "Value" "2PDT-LED" (id 1) (at 0 -19.05 0)
      (effects (font (size 1.778 1.778)))
    )
    (property "Footprint" "" (id 2) (at 0 0 0)
      (effects (font (size 1.524 1.524)))
    )
    (property "Datasheet" "" (id 3) (at 0 0 0)
      (effects (font (size 1.524 1.524)))
    )
    (symbol "2PDT-LED_0_1"
      (circle (center -3.81 -5.08) (radius 1.27)
        (stroke (width 0.2032) (type default) (color 0 0 0 0))
        (fill (type none))
      )
      (circle (center -3.81 5.08) (radius 1.27)
        (stroke (width 0.2032) (type default) (color 0 0 0 0))
        (fill (type none))
      )
      (polyline
        (pts
          (xy -8.89 -13.97)
          (xy -2.54 -13.97)
        )
        (stroke (width 0) (type default) (color 0 0 0 0))
        (fill (type none))
      )
      (polyline
        (pts
          (xy -2.54 -5.08)
          (xy 2.54 -2.54)
        )
        (stroke (width 0.2032) (type default) (color 0 0 0 0))
        (fill (type none))
      )
      (polyline
        (pts
          (xy -2.54 5.08)
          (xy 2.54 7.62)
        )
        (stroke (width 0.2032) (type default) (color 0 0 0 0))
        (fill (type none))
      )
      (polyline
        (pts
          (xy 0 -3.175)
          (xy 0 -3.81)
        )
        (stroke (width 0.2032) (type default) (color 0 0 0 0))
        (fill (type none))
      )
      (polyline
        (pts
          (xy 0 -2.54)
          (xy 0 -1.905)
        )
        (stroke (width 0.2032) (type default) (color 0 0 0 0))
        (fill (type none))
      )
      (polyline
        (pts
          (xy 0 -1.27)
          (xy 0 -0.635)
        )
        (stroke (width 0.2032) (type default) (color 0 0 0 0))
        (fill (type none))
      )
      (polyline
        (pts
          (xy 0 0)
          (xy 0 0.635)
        )
        (stroke (width 0.2032) (type default) (color 0 0 0 0))
        (fill (type none))
      )
      (polyline
        (pts
          (xy 0 1.27)
          (xy 0 1.905)
        )
        (stroke (width 0.2032) (type default) (color 0 0 0 0))
        (fill (type none))
      )
      (polyline
        (pts
          (xy 0 2.54)
          (xy 0 3.175)
        )
        (stroke (width 0.2032) (type default) (color 0 0 0 0))
        (fill (type none))
      )
      (polyline
        (pts
          (xy 0 3.81)
          (xy 0 4.445)
        )
        (stroke (width 0.2032) (type default) (color 0 0 0 0))
        (fill (type none))
      )
      (polyline
        (pts
          (xy 0 5.08)
          (xy 0 5.715)
        )
        (stroke (width 0.2032) (type default) (color 0 0 0 0))
        (fill (type none))
      )
      (polyline
        (pts
          (xy 1.27 -11.43)
          (xy 1.27 -16.51)
        )
        (stroke (width 0) (type default) (color 0 0 0 0))
        (fill (type none))
      )
      (polyline
        (pts
          (xy 8.89 -13.97)
          (xy 1.27 -13.97)
        )
        (stroke (width 0) (type default) (color 0 0 0 0))
        (fill (type none))
      )
      (polyline
        (pts
          (xy -2.54 -11.43)
          (xy -2.54 -16.51)
          (xy 1.27 -13.97)
          (xy -2.54 -11.43)
        )
        (stroke (width 0) (type default) (color 0 0 0 0))
        (fill (type none))
      )
      (circle (center 3.81 -7.62) (radius 1.27)
        (stroke (width 0.2032) (type default) (color 0 0 0 0))
        (fill (type none))
      )
      (circle (center 3.81 -2.54) (radius 1.27)
        (stroke (width 0.2032) (type default) (color 0 0 0 0))
        (fill (type none))
      )
      (circle (center 3.81 2.54) (radius 1.27)
        (stroke (width 0.2032) (type default) (color 0 0 0 0))
        (fill (type none))
      )
      (circle (center 3.81 7.62) (radius 1.27)
        (stroke (width 0.2032) (type default) (color 0 0 0 0))
        (fill (type none))
      )
    )
    (symbol "2PDT-LED_1_1"
      (pin input line (at 12.7 7.62 180) (length 7.5946)
        (name "1" (effects (font (size 1.778 1.778))))
        (number "1" (effects (font (size 1.778 1.778))))
      )
      (pin input line (at -12.7 5.08 0) (length 7.5946)
        (name "2" (effects (font (size 1.778 1.778))))
        (number "2" (effects (font (size 1.778 1.778))))
      )
      (pin input line (at 12.7 2.54 180) (length 7.5946)
        (name "3" (effects (font (size 1.778 1.778))))
        (number "3" (effects (font (size 1.778 1.778))))
      )
      (pin input line (at 12.7 -2.54 180) (length 7.5946)
        (name "4" (effects (font (size 1.778 1.778))))
        (number "4" (effects (font (size 1.778 1.778))))
      )
      (pin input line (at -12.7 -5.08 0) (length 7.5946)
        (name "5" (effects (font (size 1.778 1.778))))
        (number "5" (effects (font (size 1.778 1.778))))
      )
      (pin input line (at 12.7 -7.62 180) (length 7.5946)
        (name "6" (effects (font (size 1.778 1.778))))
        (number "6" (effects (font (size 1.778 1.778))))
      )
      (pin input line (at -12.7 -13.97 0) (length 3.81)
        (name "~" (effects (font (size 1.27 1.27))))
        (number "7" (effects (font (size 1.27 1.27))))
      )
      (pin input line (at 12.7 -13.97 180) (length 3.81)
        (name "~" (effects (font (size 1.27 1.27))))
        (number "8" (effects (font (size 1.27 1.27))))
      )
    )
  )
)
