(kicad_symbol_lib (version 20211014) (generator kicad_symbol_editor)
  (symbol "AH49FDNTR-G1 " (in_bom yes) (on_board yes)
    (property "Reference" "U" (id 0) (at 2.54 6.35 0)
      (effects (font (size 1.27 1.27)))
    )
    (property "Value" "AH49FDNTR-G1 " (id 1) (at 7.62 -6.35 0)
      (effects (font (size 1.27 1.27)))
    )
    (property "Footprint" "Package_DFN_QFN:DFN-6-1EP_2x2mm_P0.65mm_EP1x1.6mm" (id 2) (at 0 -2.54 0)
      (effects (font (size 1.27 1.27)) hide)
    )
    (property "Datasheet" "https://www.diodes.com/assets/Datasheets/AH49F.pdf" (id 3) (at 0 -2.54 0)
      (effects (font (size 1.27 1.27)) hide)
    )
    (property "ki_description" "LINEAR HALL EFFECT IC, U-DFN2020-6" (id 4) (at 0 0 0)
      (effects (font (size 1.27 1.27)) hide)
    )
    (symbol "AH49FDNTR-G1 _0_1"
      (rectangle (start -2.54 5.08) (end 5.08 -5.08)
        (stroke (width 0) (type default) (color 0 0 0 0))
        (fill (type none))
      )
    )
    (symbol "AH49FDNTR-G1 _1_1"
      (pin output line (at 7.62 0 180) (length 2.54)
        (name "OUT" (effects (font (size 1.27 1.27))))
        (number "1" (effects (font (size 1.27 1.27))))
      )
      (pin no_connect line (at -12.7 -7.62 180) (length 2.54) hide
        (name "6" (effects (font (size 1.27 1.27))))
        (number "2" (effects (font (size 1.27 1.27))))
      )
      (pin no_connect line (at -12.7 -5.08 180) (length 2.54) hide
        (name "NC" (effects (font (size 1.27 1.27))))
        (number "2" (effects (font (size 1.27 1.27))))
      )
      (pin power_in line (at 0 7.62 270) (length 2.54)
        (name "VCC" (effects (font (size 1.27 1.27))))
        (number "3" (effects (font (size 1.27 1.27))))
      )
      (pin no_connect line (at -12.7 -6.35 180) (length 2.54) hide
        (name "NC" (effects (font (size 1.27 1.27))))
        (number "4" (effects (font (size 1.27 1.27))))
      )
      (pin power_in line (at 0 -7.62 90) (length 2.54)
        (name "GND" (effects (font (size 1.27 1.27))))
        (number "5" (effects (font (size 1.27 1.27))))
      )
    )
  )
  (symbol "AH49FNTR-G1" (in_bom yes) (on_board yes)
    (property "Reference" "U" (id 0) (at 2.54 6.35 0)
      (effects (font (size 1.27 1.27)))
    )
    (property "Value" "AH49FNTR-G1" (id 1) (at 7.62 -6.35 0)
      (effects (font (size 1.27 1.27)))
    )
    (property "Footprint" "Package_TO_SOT_SMD:SOT-23" (id 2) (at 0 -2.54 0)
      (effects (font (size 1.27 1.27)) hide)
    )
    (property "Datasheet" "https://www.diodes.com/assets/Datasheets/AH49F.pdf" (id 3) (at 0 -2.54 0)
      (effects (font (size 1.27 1.27)) hide)
    )
    (property "ki_description" "LINEAR HALL EFFECT IC, SC-59/SOT-23" (id 4) (at 0 0 0)
      (effects (font (size 1.27 1.27)) hide)
    )
    (symbol "AH49FNTR-G1_0_1"
      (rectangle (start -2.54 5.08) (end 5.08 -5.08)
        (stroke (width 0) (type default) (color 0 0 0 0))
        (fill (type none))
      )
    )
    (symbol "AH49FNTR-G1_1_1"
      (pin power_in line (at 0 7.62 270) (length 2.54)
        (name "VCC" (effects (font (size 1.27 1.27))))
        (number "1" (effects (font (size 1.27 1.27))))
      )
      (pin output line (at 7.62 0 180) (length 2.54)
        (name "OUT" (effects (font (size 1.27 1.27))))
        (number "2" (effects (font (size 1.27 1.27))))
      )
      (pin power_in line (at 0 -7.62 90) (length 2.54)
        (name "GND" (effects (font (size 1.27 1.27))))
        (number "3" (effects (font (size 1.27 1.27))))
      )
    )
  )
  (symbol "AH49FZ3-G1" (in_bom yes) (on_board yes)
    (property "Reference" "U" (id 0) (at 2.54 6.35 0)
      (effects (font (size 1.27 1.27)))
    )
    (property "Value" "AH49FZ3-G1" (id 1) (at 7.62 -6.35 0)
      (effects (font (size 1.27 1.27)))
    )
    (property "Footprint" "Package_TO_SOT_THT:TO-92S" (id 2) (at 0 -2.54 0)
      (effects (font (size 1.27 1.27)) hide)
    )
    (property "Datasheet" "https://www.diodes.com/assets/Datasheets/AH49F.pdf" (id 3) (at 0 -2.54 0)
      (effects (font (size 1.27 1.27)) hide)
    )
    (property "ki_description" "LINEAR HALL EFFECT IC, TO-92" (id 4) (at 0 0 0)
      (effects (font (size 1.27 1.27)) hide)
    )
    (symbol "AH49FZ3-G1_0_1"
      (rectangle (start -2.54 5.08) (end 5.08 -5.08)
        (stroke (width 0) (type default) (color 0 0 0 0))
        (fill (type none))
      )
    )
    (symbol "AH49FZ3-G1_1_1"
      (pin power_in line (at 0 7.62 270) (length 2.54)
        (name "VCC" (effects (font (size 1.27 1.27))))
        (number "1" (effects (font (size 1.27 1.27))))
      )
      (pin power_in line (at 0 -7.62 90) (length 2.54)
        (name "GND" (effects (font (size 1.27 1.27))))
        (number "2" (effects (font (size 1.27 1.27))))
      )
      (pin output line (at 7.62 0 180) (length 2.54)
        (name "OUT" (effects (font (size 1.27 1.27))))
        (number "3" (effects (font (size 1.27 1.27))))
      )
    )
  )
)
