(kicad_symbol_lib (version 20211014) (generator kicad_symbol_editor)
  (symbol "CSD18563Q5A" (pin_names (offset 0) hide) (in_bom yes) (on_board yes)
    (property "Reference" "Q" (id 0) (at 7.62 1.27 0)
      (effects (font (size 1.27 1.27)) (justify right))
    )
    (property "Value" "CSD18563Q5A" (id 1) (at 16.51 -1.27 0)
      (effects (font (size 1.27 1.27)) (justify right))
    )
    (property "Footprint" "" (id 2) (at 5.08 2.54 0)
      (effects (font (size 0.7366 0.7366)))
    )
    (property "Datasheet" "" (id 3) (at 0 0 0)
      (effects (font (size 1.524 1.524)))
    )
    (property "OrdNums" "F:2430171RL;M:595-CSD18563Q5A;D:296-36511-2-ND" (id 4) (at 10.16 3.81 0)
      (effects (font (size 1.524 1.524)))
    )
    (property "ki_keywords" "nmos n-mos n-mosfet transistor" (id 5) (at 0 0 0)
      (effects (font (size 1.27 1.27)) hide)
    )
    (property "ki_description" "Transistor N-MOSFET (general)" (id 6) (at 0 0 0)
      (effects (font (size 1.27 1.27)) hide)
    )
    (symbol "CSD18563Q5A_0_1"
      (polyline
        (pts
          (xy 0 -3.81)
          (xy 2.54 -3.81)
        )
        (stroke (width 0) (type default) (color 0 0 0 0))
        (fill (type none))
      )
      (polyline
        (pts
          (xy 0.762 -1.778)
          (xy 2.54 -1.778)
        )
        (stroke (width 0) (type default) (color 0 0 0 0))
        (fill (type none))
      )
      (polyline
        (pts
          (xy 0.762 -1.27)
          (xy 0.762 -2.286)
        )
        (stroke (width 0.254) (type default) (color 0 0 0 0))
        (fill (type none))
      )
      (polyline
        (pts
          (xy 0.762 0)
          (xy 2.54 0)
        )
        (stroke (width 0) (type default) (color 0 0 0 0))
        (fill (type none))
      )
      (polyline
        (pts
          (xy 0.762 0.508)
          (xy 0.762 -0.508)
        )
        (stroke (width 0.254) (type default) (color 0 0 0 0))
        (fill (type none))
      )
      (polyline
        (pts
          (xy 0.762 1.778)
          (xy 2.54 1.778)
        )
        (stroke (width 0) (type default) (color 0 0 0 0))
        (fill (type none))
      )
      (polyline
        (pts
          (xy 0.762 2.286)
          (xy 0.762 1.27)
        )
        (stroke (width 0.254) (type default) (color 0 0 0 0))
        (fill (type none))
      )
      (polyline
        (pts
          (xy 2.54 -3.81)
          (xy 2.54 -2.54)
        )
        (stroke (width 0) (type default) (color 0 0 0 0))
        (fill (type none))
      )
      (polyline
        (pts
          (xy 2.54 -3.81)
          (xy 5.08 -3.81)
        )
        (stroke (width 0) (type default) (color 0 0 0 0))
        (fill (type none))
      )
      (polyline
        (pts
          (xy 2.54 -1.778)
          (xy 2.54 -2.54)
        )
        (stroke (width 0) (type default) (color 0 0 0 0))
        (fill (type none))
      )
      (polyline
        (pts
          (xy 2.54 -1.778)
          (xy 2.54 0)
        )
        (stroke (width 0) (type default) (color 0 0 0 0))
        (fill (type none))
      )
      (polyline
        (pts
          (xy 2.54 2.54)
          (xy 2.54 1.778)
        )
        (stroke (width 0) (type default) (color 0 0 0 0))
        (fill (type none))
      )
      (polyline
        (pts
          (xy 2.54 2.54)
          (xy 2.54 3.81)
        )
        (stroke (width 0) (type default) (color 0 0 0 0))
        (fill (type none))
      )
      (polyline
        (pts
          (xy 0.254 1.905)
          (xy 0.254 -1.905)
          (xy 0.254 -1.905)
        )
        (stroke (width 0.254) (type default) (color 0 0 0 0))
        (fill (type none))
      )
      (polyline
        (pts
          (xy 1.016 0)
          (xy 2.032 0.381)
          (xy 2.032 -0.381)
          (xy 1.016 0)
        )
        (stroke (width 0) (type default) (color 0 0 0 0))
        (fill (type outline))
      )
      (circle (center 1.27 0) (radius 2.8194)
        (stroke (width 0.254) (type default) (color 0 0 0 0))
        (fill (type none))
      )
    )
    (symbol "CSD18563Q5A_1_1"
      (pin passive line (at 0 -6.35 90) (length 2.54)
        (name "S" (effects (font (size 1.27 1.27))))
        (number "1" (effects (font (size 1.27 1.27))))
      )
      (pin input line (at 2.54 -6.35 90) (length 2.54)
        (name "S" (effects (font (size 1.27 1.27))))
        (number "2" (effects (font (size 1.27 1.27))))
      )
      (pin input line (at 5.08 -6.35 90) (length 2.54)
        (name "S" (effects (font (size 1.27 1.27))))
        (number "3" (effects (font (size 1.27 1.27))))
      )
      (pin passive line (at -5.08 0 0) (length 5.08)
        (name "~" (effects (font (size 1.27 1.27))))
        (number "4" (effects (font (size 1.27 1.27))))
      )
      (pin passive line (at 2.54 6.35 270) (length 2.54)
        (name "D" (effects (font (size 1.27 1.27))))
        (number "5" (effects (font (size 1.27 1.27))))
      )
    )
  )
  (symbol "LM5576" (pin_names (offset 1.016)) (in_bom yes) (on_board yes)
    (property "Reference" "U" (id 0) (at -8.89 -19.05 0)
      (effects (font (size 1.524 1.524)))
    )
    (property "Value" "LM5576" (id 1) (at 6.35 -19.05 0)
      (effects (font (size 1.524 1.524)))
    )
    (property "Footprint" "" (id 2) (at -2.54 -7.62 0)
      (effects (font (size 1.524 1.524)) hide)
    )
    (property "Datasheet" "" (id 3) (at -2.54 -7.62 0)
      (effects (font (size 1.524 1.524)) hide)
    )
    (symbol "LM5576_0_1"
      (rectangle (start 10.16 17.78) (end -10.16 -17.78)
        (stroke (width 0) (type default) (color 0 0 0 0))
        (fill (type none))
      )
    )
    (symbol "LM5576_1_1"
      (pin output line (at 15.24 15.24 180) (length 5.08)
        (name "VCC" (effects (font (size 1.27 1.27))))
        (number "1" (effects (font (size 1.27 1.27))))
      )
      (pin power_in line (at -15.24 -15.24 0) (length 5.08)
        (name "AGND" (effects (font (size 1.27 1.27))))
        (number "10" (effects (font (size 1.27 1.27))))
      )
      (pin output line (at -15.24 -2.54 0) (length 5.08)
        (name "SS" (effects (font (size 1.27 1.27))))
        (number "11" (effects (font (size 1.27 1.27))))
      )
      (pin power_out line (at 15.24 -10.16 180) (length 5.08)
        (name "OUT" (effects (font (size 1.27 1.27))))
        (number "12" (effects (font (size 1.27 1.27))))
      )
      (pin power_in line (at 15.24 -15.24 180) (length 5.08)
        (name "GND" (effects (font (size 1.27 1.27))))
        (number "13" (effects (font (size 1.27 1.27))))
      )
      (pin power_in line (at 15.24 -12.7 180) (length 5.08)
        (name "GND" (effects (font (size 1.27 1.27))))
        (number "14" (effects (font (size 1.27 1.27))))
      )
      (pin input line (at 15.24 -7.62 180) (length 5.08)
        (name "IS" (effects (font (size 1.27 1.27))))
        (number "15" (effects (font (size 1.27 1.27))))
      )
      (pin input line (at 15.24 -5.08 180) (length 5.08)
        (name "IS" (effects (font (size 1.27 1.27))))
        (number "16" (effects (font (size 1.27 1.27))))
      )
      (pin passive line (at 15.24 2.54 180) (length 5.08)
        (name "SW" (effects (font (size 1.27 1.27))))
        (number "17" (effects (font (size 1.27 1.27))))
      )
      (pin output line (at 15.24 5.08 180) (length 5.08)
        (name "SW" (effects (font (size 1.27 1.27))))
        (number "18" (effects (font (size 1.27 1.27))))
      )
      (pin input line (at 15.24 0 180) (length 5.08)
        (name "PRE" (effects (font (size 1.27 1.27))))
        (number "19" (effects (font (size 1.27 1.27))))
      )
      (pin input line (at -15.24 7.62 0) (length 5.08)
        (name "SD" (effects (font (size 1.27 1.27))))
        (number "2" (effects (font (size 1.27 1.27))))
      )
      (pin input line (at 15.24 10.16 180) (length 5.08)
        (name "BST" (effects (font (size 1.27 1.27))))
        (number "20" (effects (font (size 1.27 1.27))))
      )
      (pin input line (at 0 -22.86 90) (length 5.08)
        (name "EP" (effects (font (size 1.27 1.27))))
        (number "21" (effects (font (size 1.27 1.27))))
      )
      (pin power_in line (at -15.24 15.24 0) (length 5.08)
        (name "VIN" (effects (font (size 1.27 1.27))))
        (number "3" (effects (font (size 1.27 1.27))))
      )
      (pin power_in line (at -15.24 12.7 0) (length 5.08)
        (name "VIN" (effects (font (size 1.27 1.27))))
        (number "4" (effects (font (size 1.27 1.27))))
      )
      (pin input line (at -15.24 5.08 0) (length 5.08)
        (name "SYNC" (effects (font (size 1.27 1.27))))
        (number "5" (effects (font (size 1.27 1.27))))
      )
      (pin output line (at -15.24 -10.16 0) (length 5.08)
        (name "COMP" (effects (font (size 1.27 1.27))))
        (number "6" (effects (font (size 1.27 1.27))))
      )
      (pin input line (at -15.24 -12.7 0) (length 5.08)
        (name "FB" (effects (font (size 1.27 1.27))))
        (number "7" (effects (font (size 1.27 1.27))))
      )
      (pin input line (at -15.24 -5.08 0) (length 5.08)
        (name "RT" (effects (font (size 1.27 1.27))))
        (number "8" (effects (font (size 1.27 1.27))))
      )
      (pin output line (at -15.24 0 0) (length 5.08)
        (name "RAMP" (effects (font (size 1.27 1.27))))
        (number "9" (effects (font (size 1.27 1.27))))
      )
    )
  )
  (symbol "LMZ31503" (pin_names (offset 1.016)) (in_bom yes) (on_board yes)
    (property "Reference" "U" (id 0) (at 15.24 -25.4 0)
      (effects (font (size 1.524 1.524)))
    )
    (property "Value" "LMZ31503" (id 1) (at -10.16 -25.4 0)
      (effects (font (size 1.524 1.524)))
    )
    (property "Footprint" "" (id 2) (at 0 2.54 0)
      (effects (font (size 1.524 1.524)))
    )
    (property "Datasheet" "" (id 3) (at 0 2.54 0)
      (effects (font (size 1.524 1.524)))
    )
    (symbol "LMZ31503_0_1"
      (polyline
        (pts
          (xy 16.51 26.67)
          (xy -16.51 26.67)
          (xy -16.51 -22.86)
          (xy 16.51 -22.86)
          (xy 16.51 26.67)
        )
        (stroke (width 0) (type default) (color 0 0 0 0))
        (fill (type none))
      )
    )
    (symbol "LMZ31503_1_1"
      (pin power_in line (at -20.32 20.32 0) (length 3.81)
        (name "AGND" (effects (font (size 1.27 1.27))))
        (number "1" (effects (font (size 1.27 1.27))))
      )
      (pin passive line (at -20.32 -5.08 0) (length 3.81)
        (name "PH" (effects (font (size 1.27 1.27))))
        (number "10" (effects (font (size 1.27 1.27))))
      )
      (pin passive line (at -20.32 -7.62 0) (length 3.81)
        (name "PH" (effects (font (size 1.27 1.27))))
        (number "11" (effects (font (size 1.27 1.27))))
      )
      (pin passive line (at -20.32 -10.16 0) (length 3.81)
        (name "PH" (effects (font (size 1.27 1.27))))
        (number "12" (effects (font (size 1.27 1.27))))
      )
      (pin passive line (at -20.32 -12.7 0) (length 3.81)
        (name "PH" (effects (font (size 1.27 1.27))))
        (number "13" (effects (font (size 1.27 1.27))))
      )
      (pin passive line (at -20.32 -15.24 0) (length 3.81)
        (name "PH" (effects (font (size 1.27 1.27))))
        (number "14" (effects (font (size 1.27 1.27))))
      )
      (pin passive line (at -20.32 -17.78 0) (length 3.81)
        (name "PH" (effects (font (size 1.27 1.27))))
        (number "17" (effects (font (size 1.27 1.27))))
      )
      (pin power_in line (at -20.32 17.78 0) (length 3.81)
        (name "AGND" (effects (font (size 1.27 1.27))))
        (number "2" (effects (font (size 1.27 1.27))))
      )
      (pin power_in line (at 20.32 -17.78 180) (length 3.81)
        (name "VO" (effects (font (size 1.27 1.27))))
        (number "21" (effects (font (size 1.27 1.27))))
      )
      (pin power_in line (at 20.32 -15.24 180) (length 3.81)
        (name "VO" (effects (font (size 1.27 1.27))))
        (number "24" (effects (font (size 1.27 1.27))))
      )
      (pin power_in line (at 20.32 -12.7 180) (length 3.81)
        (name "VO" (effects (font (size 1.27 1.27))))
        (number "25" (effects (font (size 1.27 1.27))))
      )
      (pin power_in line (at 20.32 -10.16 180) (length 3.81)
        (name "VO" (effects (font (size 1.27 1.27))))
        (number "26" (effects (font (size 1.27 1.27))))
      )
      (pin power_in line (at 20.32 -7.62 180) (length 3.81)
        (name "VO" (effects (font (size 1.27 1.27))))
        (number "27" (effects (font (size 1.27 1.27))))
      )
      (pin power_in line (at 20.32 -5.08 180) (length 3.81)
        (name "VO" (effects (font (size 1.27 1.27))))
        (number "28" (effects (font (size 1.27 1.27))))
      )
      (pin power_in line (at 20.32 -2.54 180) (length 3.81)
        (name "VO" (effects (font (size 1.27 1.27))))
        (number "29" (effects (font (size 1.27 1.27))))
      )
      (pin output line (at 20.32 2.54 180) (length 3.81)
        (name "PWRGD" (effects (font (size 1.27 1.27))))
        (number "33" (effects (font (size 1.27 1.27))))
      )
      (pin power_in line (at -20.32 15.24 0) (length 3.81)
        (name "AGND" (effects (font (size 1.27 1.27))))
        (number "34" (effects (font (size 1.27 1.27))))
      )
      (pin power_in line (at -20.32 12.7 0) (length 3.81)
        (name "AGND" (effects (font (size 1.27 1.27))))
        (number "35" (effects (font (size 1.27 1.27))))
      )
      (pin input line (at 20.32 7.62 180) (length 3.81)
        (name "RT/CLK" (effects (font (size 1.27 1.27))))
        (number "35" (effects (font (size 1.27 1.27))))
      )
      (pin power_in line (at 20.32 12.7 180) (length 3.81)
        (name "PGND" (effects (font (size 1.27 1.27))))
        (number "36" (effects (font (size 1.27 1.27))))
      )
      (pin power_in line (at 20.32 15.24 180) (length 3.81)
        (name "PGND" (effects (font (size 1.27 1.27))))
        (number "37" (effects (font (size 1.27 1.27))))
      )
      (pin power_in line (at 20.32 17.78 180) (length 3.81)
        (name "PGND" (effects (font (size 1.27 1.27))))
        (number "38" (effects (font (size 1.27 1.27))))
      )
      (pin power_in line (at 7.62 30.48 270) (length 3.81)
        (name "PVIN" (effects (font (size 1.27 1.27))))
        (number "39" (effects (font (size 1.27 1.27))))
      )
      (pin power_in line (at 5.08 30.48 270) (length 3.81)
        (name "PVIN" (effects (font (size 1.27 1.27))))
        (number "40" (effects (font (size 1.27 1.27))))
      )
      (pin power_in line (at 2.54 30.48 270) (length 3.81)
        (name "PVIN" (effects (font (size 1.27 1.27))))
        (number "41" (effects (font (size 1.27 1.27))))
      )
      (pin input line (at 0 30.48 270) (length 3.81)
        (name "VIN" (effects (font (size 1.27 1.27))))
        (number "42" (effects (font (size 1.27 1.27))))
      )
      (pin input line (at -5.08 30.48 270) (length 3.81)
        (name "VADJ" (effects (font (size 1.27 1.27))))
        (number "43" (effects (font (size 1.27 1.27))))
      )
      (pin input line (at -7.62 30.48 270) (length 3.81)
        (name "SENSE+" (effects (font (size 1.27 1.27))))
        (number "44" (effects (font (size 1.27 1.27))))
      )
      (pin power_in line (at -20.32 10.16 0) (length 3.81)
        (name "AGND" (effects (font (size 1.27 1.27))))
        (number "45" (effects (font (size 1.27 1.27))))
      )
      (pin passive line (at -20.32 -20.32 0) (length 3.81)
        (name "PH" (effects (font (size 1.27 1.27))))
        (number "46" (effects (font (size 1.27 1.27))))
      )
      (pin power_in line (at 20.32 -20.32 180) (length 3.81)
        (name "VO" (effects (font (size 1.27 1.27))))
        (number "47" (effects (font (size 1.27 1.27))))
      )
      (pin input line (at -20.32 7.62 0) (length 3.81)
        (name "SS/TR" (effects (font (size 1.27 1.27))))
        (number "6" (effects (font (size 1.27 1.27))))
      )
      (pin input line (at -20.32 5.08 0) (length 3.81)
        (name "STSEL" (effects (font (size 1.27 1.27))))
        (number "7" (effects (font (size 1.27 1.27))))
      )
      (pin input line (at -20.32 2.54 0) (length 3.81)
        (name "INH/UVLO" (effects (font (size 1.27 1.27))))
        (number "8" (effects (font (size 1.27 1.27))))
      )
      (pin input line (at -20.32 0 0) (length 3.81)
        (name "INH/UVLO" (effects (font (size 1.27 1.27))))
        (number "9" (effects (font (size 1.27 1.27))))
      )
    )
  )
  (symbol "Q_NMOS_SGD" (pin_names (offset 0) hide) (in_bom yes) (on_board yes)
    (property "Reference" "Q" (id 0) (at 7.62 1.27 0)
      (effects (font (size 1.27 1.27)) (justify right))
    )
    (property "Value" "Q_NMOS_SGD" (id 1) (at 16.51 -1.27 0)
      (effects (font (size 1.27 1.27)) (justify right))
    )
    (property "Footprint" "" (id 2) (at 5.08 2.54 0)
      (effects (font (size 0.7366 0.7366)))
    )
    (property "Datasheet" "" (id 3) (at 0 0 0)
      (effects (font (size 1.524 1.524)))
    )
    (property "ki_keywords" "nmos n-mos n-mosfet transistor" (id 4) (at 0 0 0)
      (effects (font (size 1.27 1.27)) hide)
    )
    (property "ki_description" "Transistor N-MOSFET (general)" (id 5) (at 0 0 0)
      (effects (font (size 1.27 1.27)) hide)
    )
    (symbol "Q_NMOS_SGD_0_1"
      (polyline
        (pts
          (xy 0.762 -1.778)
          (xy 2.54 -1.778)
        )
        (stroke (width 0) (type default) (color 0 0 0 0))
        (fill (type none))
      )
      (polyline
        (pts
          (xy 0.762 -1.27)
          (xy 0.762 -2.286)
        )
        (stroke (width 0.254) (type default) (color 0 0 0 0))
        (fill (type none))
      )
      (polyline
        (pts
          (xy 0.762 0)
          (xy 2.54 0)
        )
        (stroke (width 0) (type default) (color 0 0 0 0))
        (fill (type none))
      )
      (polyline
        (pts
          (xy 0.762 0.508)
          (xy 0.762 -0.508)
        )
        (stroke (width 0.254) (type default) (color 0 0 0 0))
        (fill (type none))
      )
      (polyline
        (pts
          (xy 0.762 1.778)
          (xy 2.54 1.778)
        )
        (stroke (width 0) (type default) (color 0 0 0 0))
        (fill (type none))
      )
      (polyline
        (pts
          (xy 0.762 2.286)
          (xy 0.762 1.27)
        )
        (stroke (width 0.254) (type default) (color 0 0 0 0))
        (fill (type none))
      )
      (polyline
        (pts
          (xy 2.54 -1.778)
          (xy 2.54 -2.54)
        )
        (stroke (width 0) (type default) (color 0 0 0 0))
        (fill (type none))
      )
      (polyline
        (pts
          (xy 2.54 -1.778)
          (xy 2.54 0)
        )
        (stroke (width 0) (type default) (color 0 0 0 0))
        (fill (type none))
      )
      (polyline
        (pts
          (xy 2.54 2.54)
          (xy 2.54 1.778)
        )
        (stroke (width 0) (type default) (color 0 0 0 0))
        (fill (type none))
      )
      (polyline
        (pts
          (xy 0.254 1.905)
          (xy 0.254 -1.905)
          (xy 0.254 -1.905)
        )
        (stroke (width 0.254) (type default) (color 0 0 0 0))
        (fill (type none))
      )
      (polyline
        (pts
          (xy 1.016 0)
          (xy 2.032 0.381)
          (xy 2.032 -0.381)
          (xy 1.016 0)
        )
        (stroke (width 0) (type default) (color 0 0 0 0))
        (fill (type outline))
      )
      (circle (center 1.27 0) (radius 2.8194)
        (stroke (width 0.254) (type default) (color 0 0 0 0))
        (fill (type none))
      )
    )
    (symbol "Q_NMOS_SGD_1_1"
      (pin passive line (at 2.54 -5.08 90) (length 2.54)
        (name "S" (effects (font (size 1.27 1.27))))
        (number "1" (effects (font (size 1.27 1.27))))
      )
      (pin input line (at -5.08 0 0) (length 5.334)
        (name "G" (effects (font (size 1.27 1.27))))
        (number "2" (effects (font (size 1.27 1.27))))
      )
      (pin passive line (at 2.54 5.08 270) (length 2.54)
        (name "D" (effects (font (size 1.27 1.27))))
        (number "3" (effects (font (size 1.27 1.27))))
      )
    )
  )
  (symbol "TL783" (pin_names (offset 1.016)) (in_bom yes) (on_board yes)
    (property "Reference" "U" (id 0) (at 0 -5.08 0)
      (effects (font (size 1.524 1.524)))
    )
    (property "Value" "TL783" (id 1) (at 0 6.35 0)
      (effects (font (size 1.524 1.524)))
    )
    (property "Footprint" "" (id 2) (at 0 0 0)
      (effects (font (size 1.524 1.524)) hide)
    )
    (property "Datasheet" "" (id 3) (at 0 0 0)
      (effects (font (size 1.524 1.524)) hide)
    )
    (symbol "TL783_0_1"
      (rectangle (start 7.62 0) (end -7.62 5.08)
        (stroke (width 0) (type default) (color 0 0 0 0))
        (fill (type none))
      )
    )
    (symbol "TL783_1_1"
      (pin passive line (at 0 -2.54 90) (length 2.54)
        (name "ADJ" (effects (font (size 1.27 1.27))))
        (number "1" (effects (font (size 1.27 1.27))))
      )
      (pin power_out line (at 10.16 2.54 180) (length 2.54)
        (name "OUT" (effects (font (size 1.27 1.27))))
        (number "2" (effects (font (size 1.27 1.27))))
      )
      (pin power_in line (at -10.16 2.54 0) (length 2.54)
        (name "IN" (effects (font (size 1.27 1.27))))
        (number "3" (effects (font (size 1.27 1.27))))
      )
    )
  )
  (symbol "TLC5973" (pin_names (offset 1.016)) (in_bom yes) (on_board yes)
    (property "Reference" "U" (id 0) (at 8.89 -6.35 0)
      (effects (font (size 1.524 1.524)))
    )
    (property "Value" "TLC5973" (id 1) (at -5.08 -6.35 0)
      (effects (font (size 1.524 1.524)))
    )
    (property "Footprint" "" (id 2) (at 0 0 0)
      (effects (font (size 1.524 1.524)) hide)
    )
    (property "Datasheet" "" (id 3) (at 0 0 0)
      (effects (font (size 1.524 1.524)) hide)
    )
    (property "ki_description" "3-Channel, 12-Bit, PWM Constant-Current LED Driver" (id 4) (at 0 0 0)
      (effects (font (size 1.27 1.27)) hide)
    )
    (symbol "TLC5973_0_1"
      (rectangle (start -10.16 7.62) (end 10.16 -5.08)
        (stroke (width 0) (type default) (color 0 0 0 0))
        (fill (type none))
      )
    )
    (symbol "TLC5973_1_1"
      (pin open_collector line (at -15.24 5.08 0) (length 5.08)
        (name "OUT0" (effects (font (size 1.27 1.27))))
        (number "1" (effects (font (size 1.27 1.27))))
      )
      (pin open_collector line (at -15.24 2.54 0) (length 5.08)
        (name "OUT2" (effects (font (size 1.27 1.27))))
        (number "2" (effects (font (size 1.27 1.27))))
      )
      (pin open_collector line (at -15.24 0 0) (length 5.08)
        (name "OUT3" (effects (font (size 1.27 1.27))))
        (number "3" (effects (font (size 1.27 1.27))))
      )
      (pin power_in line (at -15.24 -2.54 0) (length 5.08)
        (name "GND" (effects (font (size 1.27 1.27))))
        (number "4" (effects (font (size 1.27 1.27))))
      )
      (pin output line (at 15.24 -2.54 180) (length 5.08)
        (name "SDO" (effects (font (size 1.27 1.27))))
        (number "5" (effects (font (size 1.27 1.27))))
      )
      (pin input line (at 15.24 0 180) (length 5.08)
        (name "SDI" (effects (font (size 1.27 1.27))))
        (number "6" (effects (font (size 1.27 1.27))))
      )
      (pin bidirectional line (at 15.24 2.54 180) (length 5.08)
        (name "IREF" (effects (font (size 1.27 1.27))))
        (number "7" (effects (font (size 1.27 1.27))))
      )
      (pin power_in line (at 15.24 5.08 180) (length 5.08)
        (name "VCC" (effects (font (size 1.27 1.27))))
        (number "8" (effects (font (size 1.27 1.27))))
      )
    )
  )
  (symbol "TPS25924" (pin_names (offset 1.016)) (in_bom yes) (on_board yes)
    (property "Reference" "U" (id 0) (at 10.16 -8.89 0)
      (effects (font (size 1.524 1.524)))
    )
    (property "Value" "TPS25924" (id 1) (at 0 8.89 0)
      (effects (font (size 1.524 1.524)))
    )
    (property "Footprint" "" (id 2) (at -1.27 0 0)
      (effects (font (size 1.524 1.524)))
    )
    (property "Datasheet" "" (id 3) (at -1.27 0 0)
      (effects (font (size 1.524 1.524)))
    )
    (property "ki_description" "12V 5A 28mR eFuse" (id 4) (at 0 0 0)
      (effects (font (size 1.27 1.27)) hide)
    )
    (symbol "TPS25924_0_1"
      (rectangle (start 11.43 7.62) (end -11.43 -7.62)
        (stroke (width 0) (type default) (color 0 0 0 0))
        (fill (type none))
      )
    )
    (symbol "TPS25924_1_1"
      (pin input line (at -15.24 5.08 0) (length 3.81)
        (name "dV/dT" (effects (font (size 1.27 1.27))))
        (number "1" (effects (font (size 1.27 1.27))))
      )
      (pin input line (at 15.24 5.08 180) (length 3.81)
        (name "ILIM" (effects (font (size 1.27 1.27))))
        (number "10" (effects (font (size 1.27 1.27))))
      )
      (pin power_in line (at 0 -11.43 90) (length 3.81)
        (name "GND" (effects (font (size 1.27 1.27))))
        (number "11" (effects (font (size 1.27 1.27))))
      )
      (pin input line (at -15.24 2.54 0) (length 3.81)
        (name "EN/~{UVLO}" (effects (font (size 1.27 1.27))))
        (number "2" (effects (font (size 1.27 1.27))))
      )
      (pin power_in line (at -15.24 0 0) (length 3.81)
        (name "VIN" (effects (font (size 1.27 1.27))))
        (number "3" (effects (font (size 1.27 1.27))))
      )
      (pin power_in line (at -15.24 -2.54 0) (length 3.81)
        (name "VIN" (effects (font (size 1.27 1.27))))
        (number "4" (effects (font (size 1.27 1.27))))
      )
      (pin passive line (at -15.24 -5.08 0) (length 3.81)
        (name "VIN" (effects (font (size 1.27 1.27))))
        (number "5" (effects (font (size 1.27 1.27))))
      )
      (pin input line (at 15.24 -5.08 180) (length 3.81)
        (name "OUT" (effects (font (size 1.27 1.27))))
        (number "6" (effects (font (size 1.27 1.27))))
      )
      (pin input line (at 15.24 -2.54 180) (length 3.81)
        (name "OUT" (effects (font (size 1.27 1.27))))
        (number "7" (effects (font (size 1.27 1.27))))
      )
      (pin power_out line (at 15.24 0 180) (length 3.81)
        (name "OUT" (effects (font (size 1.27 1.27))))
        (number "8" (effects (font (size 1.27 1.27))))
      )
      (pin output line (at 15.24 2.54 180) (length 3.81)
        (name "BFET" (effects (font (size 1.27 1.27))))
        (number "9" (effects (font (size 1.27 1.27))))
      )
    )
  )
  (symbol "TPS40170" (pin_names (offset 1.016)) (in_bom yes) (on_board yes)
    (property "Reference" "U" (id 0) (at 11.43 -15.24 0)
      (effects (font (size 1.524 1.524)))
    )
    (property "Value" "TPS40170" (id 1) (at -2.54 17.78 0)
      (effects (font (size 1.524 1.524)))
    )
    (property "Footprint" "" (id 2) (at -2.54 -3.81 0)
      (effects (font (size 1.524 1.524)))
    )
    (property "Datasheet" "" (id 3) (at -2.54 -3.81 0)
      (effects (font (size 1.524 1.524)))
    )
    (property "ki_description" "4.5 V to 60 V Wide-Input Synchronous PWM Buck Controller" (id 4) (at 0 0 0)
      (effects (font (size 1.27 1.27)) hide)
    )
    (symbol "TPS40170_0_1"
      (rectangle (start 12.7 15.24) (end -12.7 -12.7)
        (stroke (width 0) (type default) (color 0 0 0 0))
        (fill (type none))
      )
    )
    (symbol "TPS40170_1_1"
      (pin input line (at -17.78 12.7 0) (length 5.08)
        (name "ENABLE" (effects (font (size 1.27 1.27))))
        (number "1" (effects (font (size 1.27 1.27))))
      )
      (pin output line (at -17.78 -10.16 0) (length 5.08)
        (name "VDD" (effects (font (size 1.27 1.27))))
        (number "10" (effects (font (size 1.27 1.27))))
      )
      (pin output line (at 17.78 -10.16 180) (length 5.08)
        (name "PGOOD" (effects (font (size 1.27 1.27))))
        (number "11" (effects (font (size 1.27 1.27))))
      )
      (pin input line (at 17.78 -7.62 180) (length 5.08)
        (name "ILIM" (effects (font (size 1.27 1.27))))
        (number "12" (effects (font (size 1.27 1.27))))
      )
      (pin power_in line (at 17.78 -5.08 180) (length 5.08)
        (name "PGND" (effects (font (size 1.27 1.27))))
        (number "13" (effects (font (size 1.27 1.27))))
      )
      (pin output line (at 17.78 -2.54 180) (length 5.08)
        (name "LDRV" (effects (font (size 1.27 1.27))))
        (number "14" (effects (font (size 1.27 1.27))))
      )
      (pin output line (at 17.78 0 180) (length 5.08)
        (name "VBP" (effects (font (size 1.27 1.27))))
        (number "15" (effects (font (size 1.27 1.27))))
      )
      (pin input line (at 17.78 2.54 180) (length 5.08)
        (name "SW" (effects (font (size 1.27 1.27))))
        (number "16" (effects (font (size 1.27 1.27))))
      )
      (pin output line (at 17.78 5.08 180) (length 5.08)
        (name "HDRV" (effects (font (size 1.27 1.27))))
        (number "17" (effects (font (size 1.27 1.27))))
      )
      (pin output line (at 17.78 7.62 180) (length 5.08)
        (name "BOOT" (effects (font (size 1.27 1.27))))
        (number "18" (effects (font (size 1.27 1.27))))
      )
      (pin input line (at 17.78 10.16 180) (length 5.08)
        (name "VIN" (effects (font (size 1.27 1.27))))
        (number "19" (effects (font (size 1.27 1.27))))
      )
      (pin bidirectional line (at -17.78 10.16 0) (length 5.08)
        (name "SYNC" (effects (font (size 1.27 1.27))))
        (number "2" (effects (font (size 1.27 1.27))))
      )
      (pin input line (at 17.78 12.7 180) (length 5.08)
        (name "UVLO" (effects (font (size 1.27 1.27))))
        (number "20" (effects (font (size 1.27 1.27))))
      )
      (pin input line (at -5.08 -17.78 90) (length 5.08)
        (name "PAD" (effects (font (size 1.27 1.27))))
        (number "21" (effects (font (size 1.27 1.27))))
      )
      (pin input line (at -2.54 -17.78 90) (length 5.08)
        (name "PAD" (effects (font (size 1.27 1.27))))
        (number "21" (effects (font (size 1.27 1.27))))
      )
      (pin input line (at 0 -17.78 90) (length 5.08)
        (name "PAD" (effects (font (size 1.27 1.27))))
        (number "21" (effects (font (size 1.27 1.27))))
      )
      (pin input line (at 2.54 -17.78 90) (length 5.08)
        (name "PAD" (effects (font (size 1.27 1.27))))
        (number "21" (effects (font (size 1.27 1.27))))
      )
      (pin input line (at -17.78 7.62 0) (length 5.08)
        (name "M/S" (effects (font (size 1.27 1.27))))
        (number "3" (effects (font (size 1.27 1.27))))
      )
      (pin input line (at -17.78 5.08 0) (length 5.08)
        (name "RT" (effects (font (size 1.27 1.27))))
        (number "4" (effects (font (size 1.27 1.27))))
      )
      (pin input line (at -17.78 2.54 0) (length 5.08)
        (name "SS" (effects (font (size 1.27 1.27))))
        (number "5" (effects (font (size 1.27 1.27))))
      )
      (pin input line (at -17.78 0 0) (length 5.08)
        (name "TRK" (effects (font (size 1.27 1.27))))
        (number "6" (effects (font (size 1.27 1.27))))
      )
      (pin input line (at -17.78 -2.54 0) (length 5.08)
        (name "FB" (effects (font (size 1.27 1.27))))
        (number "7" (effects (font (size 1.27 1.27))))
      )
      (pin output line (at -17.78 -5.08 0) (length 5.08)
        (name "COMP" (effects (font (size 1.27 1.27))))
        (number "8" (effects (font (size 1.27 1.27))))
      )
      (pin power_in line (at -17.78 -7.62 0) (length 5.08)
        (name "AGND" (effects (font (size 1.27 1.27))))
        (number "9" (effects (font (size 1.27 1.27))))
      )
    )
  )
)
