(footprint "2x3_1.27mm" (version 20211014) (generator pcbnew)
  (layer "F.Cu")
  (tedit 6370A7A1)
  (attr smd)
  (fp_text reference "REF**" (at 6 -2 unlocked) (layer "F.SilkS")
    (effects (font (size 1 1) (thickness 0.15)))
    (tstamp 4c9fdea7-ba0c-45cc-8f66-240980c37d5c)
  )
  (fp_text value "2x3_1.27mm" (at 0 1 unlocked) (layer "F.Fab")
    (effects (font (size 1 1) (thickness 0.15)))
    (tstamp c58960d9-4cac-4036-ad2e-1aef26946dae)
  )
  (fp_text user "$(REF)" (at 0 2.5 unlocked) (layer "F.Fab")
    (effects (font (size 1 1) (thickness 0.15)))
    (tstamp 5b96c1ad-46ba-4366-8241-fbc1cd0e9bbd)
  )
  (fp_circle (center 3 1.27) (end 3.5 1.27) (layer "F.SilkS") (width 0.12) (fill solid) (tstamp 4a4ec8d9-3d72-4952-83d4-808f65849a2b))
  (pad "1" smd roundrect (at 0 1.27) (size 3 1) (layers "F.Cu" "F.Paste" "F.Mask") (roundrect_rratio 0.25) (tstamp 80f86dbb-173a-407f-b1a5-5b28f6434658))
  (pad "2" smd roundrect (at 0 1.27) (size 3 1) (layers "B.Cu" "B.Paste" "B.Mask") (roundrect_rratio 0.25) (tstamp eb667eea-300e-4ca7-8a6f-4b00de80cd45))
  (pad "3" smd roundrect (at 0 0) (size 3 1) (layers "F.Cu" "F.Paste" "F.Mask") (roundrect_rratio 0.25) (tstamp dd2f6b13-9e35-4a67-90ac-cf0d1ea34e5a))
  (pad "4" smd roundrect (at 0 0) (size 3 1) (layers "B.Cu" "B.Paste" "B.Mask") (roundrect_rratio 0.25) (tstamp 46918595-4a45-48e8-84c0-961b4db7f35f))
  (pad "5" smd roundrect (at 0 -1.27) (size 3 1) (layers "F.Cu" "F.Paste" "F.Mask") (roundrect_rratio 0.25) (tstamp 3451168c-3c76-4628-aee4-7c231bd100c3))
  (pad "6" smd roundrect (at 0 -1.27) (size 3 1) (layers "B.Cu" "B.Paste" "B.Mask") (roundrect_rratio 0.25) (tstamp b3d08afa-f296-4e3b-8825-73b6331d35bf))
  (model "${KICAD6_3DMODEL_DIR}/Connector_PinHeader_1.27mm.3dshapes/PinHeader_2x03_P1.27mm_Vertical.step"
    (offset (xyz -1.7 1.29 -1.5))
    (scale (xyz 1 1 1))
    (rotate (xyz 0 90 0))
  )
)
