(module "TE_1981568-1" (layer F.Cu) (tedit 5EEB0359)
  (fp_text reference "REF**" (at -1.25587 -4.83341) (layer F.SilkS)
    (effects (font (size 1.000709 1.000709) (thickness 0.015)))
  )
  (fp_text value "TE_1981568-1" (at 2.91403 3.765165) (layer F.Fab)
    (effects (font (size 1.001378 1.001378) (thickness 0.015)))
  )
  (fp_circle (center -1.3 -3.148) (end -1.2 -3.148) (layer F.Fab) (width 0.2))
  (fp_line (start 3.375 2.325) (end 3.375 2.2) (layer F.Fab) (width 0.127))
  (fp_line (start 3.75 2.7) (end 3.375 2.325) (layer F.Fab) (width 0.127))
  (fp_line (start 4 2.45) (end 3.75 2.7) (layer F.Fab) (width 0.127))
  (fp_line (start 3.75 2.2) (end 4 2.45) (layer F.Fab) (width 0.127))
  (fp_line (start 3.375 2.325) (end 3.375 2.2) (layer F.SilkS) (width 0.127))
  (fp_line (start 3.75 2.7) (end 3.375 2.325) (layer F.SilkS) (width 0.127))
  (fp_line (start 4 2.45) (end 3.75 2.7) (layer F.SilkS) (width 0.127))
  (fp_line (start 3.75 2.2) (end 4 2.45) (layer F.SilkS) (width 0.127))
  (fp_line (start -3.375 2.325) (end -3.375 2.2) (layer F.Fab) (width 0.127))
  (fp_line (start -3.75 2.7) (end -3.375 2.325) (layer F.Fab) (width 0.127))
  (fp_line (start -4 2.45) (end -3.75 2.7) (layer F.Fab) (width 0.127))
  (fp_line (start -3.75 2.2) (end -4 2.45) (layer F.Fab) (width 0.127))
  (fp_line (start -3.375 2.325) (end -3.375 2.2) (layer F.SilkS) (width 0.127))
  (fp_line (start -3.75 2.7) (end -3.375 2.325) (layer F.SilkS) (width 0.127))
  (fp_line (start -4 2.45) (end -3.75 2.7) (layer F.SilkS) (width 0.127))
  (fp_line (start -3.75 2.2) (end -4 2.45) (layer F.SilkS) (width 0.127))
  (fp_text user "PCB~EDGE" (at -1.14399 2.02575) (layer F.Fab)
    (effects (font (size 0.320276 0.320276) (thickness 0.015)))
  )
  (fp_line (start -3.75 1.45) (end 3.75 1.45) (layer F.Fab) (width 0.127))
  (fp_line (start 4.4 -3.6) (end -4.4 -3.6) (layer F.CrtYd) (width 0.05))
  (fp_line (start 4.4 3) (end 4.4 -3.6) (layer F.CrtYd) (width 0.05))
  (fp_line (start -4.4 3) (end 4.4 3) (layer F.CrtYd) (width 0.05))
  (fp_line (start -4.4 -3.6) (end -4.4 3) (layer F.CrtYd) (width 0.05))
  (fp_circle (center -1.295 -3.87) (end -1.195 -3.87) (layer F.SilkS) (width 0.2))
  (fp_line (start 3.75 2.14) (end 3.75 0.765) (layer F.SilkS) (width 0.127))
  (fp_line (start 2.925 2.14) (end 3.75 2.14) (layer F.SilkS) (width 0.127))
  (fp_arc (start 2.8625 2.4025) (end 2.925 2.14) (angle -90) (layer F.SilkS) (width 0.127))
  (fp_line (start 2.6 2.54) (end 2.6 2.34) (layer F.SilkS) (width 0.127))
  (fp_arc (start 2.395 2.545) (end 2.6 2.54) (angle 90) (layer F.SilkS) (width 0.127))
  (fp_line (start -2.4 2.75) (end 2.4 2.75) (layer F.SilkS) (width 0.127))
  (fp_arc (start -2.3325 2.4825) (end -2.4 2.75) (angle 90) (layer F.SilkS) (width 0.127))
  (fp_line (start -2.6 2.35) (end -2.6 2.415) (layer F.SilkS) (width 0.127))
  (fp_arc (start -2.8 2.35) (end -2.6 2.35) (angle -90) (layer F.SilkS) (width 0.127))
  (fp_line (start -3.75 2.15) (end -2.8 2.15) (layer F.SilkS) (width 0.127))
  (fp_line (start -3.75 0.825) (end -3.75 2.15) (layer F.SilkS) (width 0.127))
  (fp_line (start 3.75 -1.675) (end 3.75 -0.765) (layer F.SilkS) (width 0.127))
  (fp_line (start -3.75 -1.685) (end -3.75 -0.775) (layer F.SilkS) (width 0.127))
  (fp_line (start 1.58 -2.85) (end 2.32 -2.85) (layer F.SilkS) (width 0.127))
  (fp_line (start -2.34 -2.85) (end -1.56 -2.85) (layer F.SilkS) (width 0.127))
  (fp_line (start 2.4 2.75) (end -2.4 2.75) (layer F.Fab) (width 0.127))
  (fp_arc (start 2.4 2.55) (end 2.4 2.75) (angle -90) (layer F.Fab) (width 0.127))
  (fp_line (start 2.6 2.465) (end 2.6 2.55) (layer F.Fab) (width 0.127))
  (fp_arc (start 2.8625 2.4025) (end 2.6 2.465) (angle 90) (layer F.Fab) (width 0.127))
  (fp_line (start 3.75 2.14) (end 2.8 2.14) (layer F.Fab) (width 0.127))
  (fp_arc (start -2.4 2.55) (end -2.4 2.75) (angle 90) (layer F.Fab) (width 0.127))
  (fp_line (start -2.6 2.35) (end -2.6 2.55) (layer F.Fab) (width 0.127))
  (fp_arc (start -2.8 2.35) (end -2.6 2.35) (angle -90) (layer F.Fab) (width 0.127))
  (fp_line (start -3.75 2.15) (end -2.8 2.15) (layer F.Fab) (width 0.127))
  (fp_line (start 4.02 0.435) (end 3.77 0.435) (layer F.Fab) (width 0.127))
  (fp_line (start 4.02 -0.425) (end 4.02 0.435) (layer F.Fab) (width 0.127))
  (fp_line (start 3.76 -0.425) (end 4.02 -0.425) (layer F.Fab) (width 0.127))
  (fp_line (start -3.98 0.415) (end -3.78 0.415) (layer F.Fab) (width 0.127))
  (fp_line (start -3.98 -0.445) (end -3.98 0.415) (layer F.Fab) (width 0.127))
  (fp_line (start -3.76 -0.445) (end -3.98 -0.445) (layer F.Fab) (width 0.127))
  (fp_line (start 3.75 -2.85) (end -3.75 -2.85) (layer F.Fab) (width 0.127))
  (fp_line (start 3.75 1.45) (end 3.75 -2.85) (layer F.Fab) (width 0.127))
  (fp_line (start 3.75 2.14) (end 3.75 1.45) (layer F.Fab) (width 0.127))
  (fp_line (start -3.75 1.45) (end -3.75 2.15) (layer F.Fab) (width 0.127))
  (fp_line (start -3.75 -2.85) (end -3.75 1.45) (layer F.Fab) (width 0.127))
  (pad "1" smd rect (at -1.3 -2.675) (size 0.4 1.35) (layers "F.Cu" "F.Paste" "F.Mask") (tstamp 80575018-6c94-4f56-a8dd-d66549309bee))
  (pad "2" smd rect (at -0.65 -2.675) (size 0.4 1.35) (layers "F.Cu" "F.Paste" "F.Mask") (tstamp 885633ed-a6fe-42f6-a4b5-9e7ca0b665d9))
  (pad "3" smd rect (at 0 -2.675) (size 0.4 1.35) (layers "F.Cu" "F.Paste" "F.Mask") (tstamp 520d3730-2beb-40b1-8006-d7d14c4a9ad1))
  (pad "4" smd rect (at 0.65 -2.675) (size 0.4 1.35) (layers "F.Cu" "F.Paste" "F.Mask") (tstamp 96d374e6-1078-4f88-a8fb-49778dbcbd88))
  (pad "5" smd rect (at 1.3 -2.675) (size 0.4 1.35) (layers "F.Cu" "F.Paste" "F.Mask") (tstamp 42b6218f-fd35-43e2-bd37-e7dafe5d4ff8))
  (pad "6" smd rect (at -3.2 -2.45) (size 1.6 1.4) (layers "F.Cu" "F.Paste" "F.Mask") (tstamp 3ac54add-7234-413b-bc7d-041085f19525))
  (pad "6" smd rect (at 3.2 -2.45) (size 1.6 1.4) (layers "F.Cu" "F.Paste" "F.Mask") (tstamp d86aa76e-50b7-4155-bae8-21951b92baf7))
  (pad "6" smd rect (at 3.425 0) (size 1.45 1.3) (layers "F.Cu" "F.Paste" "F.Mask") (tstamp ab74a5bc-89c4-45e5-be96-2467d110e546))
  (pad "6" smd rect (at -3.425 0) (size 1.45 1.3) (layers "F.Cu" "F.Paste" "F.Mask") (tstamp 9958ccf7-e0a1-4cba-b762-78ae4460985b))
  (pad "6" smd rect (at -1.2 0) (size 1.9 1.9) (layers "F.Cu" "F.Paste" "F.Mask") (tstamp f0401c67-4fa1-4302-9235-b9d12ed561c6))
  (pad "6" smd rect (at 1.2 0) (size 1.9 1.9) (layers "F.Cu" "F.Paste" "F.Mask") (tstamp 83129362-edf0-4d1b-ae90-2d1427f8cf0d))
)
