(module "SDPT_MIN_V_SOLDERTERMINALS" (layer F.Cu) (tedit 5E9E3529)
  (fp_text reference "REF**" (at 0 5 unlocked) (layer F.SilkS)
    (effects (font (size 1 1) (thickness 0.15)))
  )
  (fp_text value "SDPT_MIN_V_SOLDERTERMINALS" (at 0 0 unlocked) (layer F.Fab)
    (effects (font (size 1 1) (thickness 0.15)))
  )
  (fp_line (start 6.6 -3.65) (end -6.6 -3.65) (layer F.SilkS) (width 0.12))
  (fp_line (start 6.6 3.65) (end -6.6 3.65) (layer F.SilkS) (width 0.12))
  (fp_line (start -6.6 3.65) (end -6.6 -3.65) (layer F.SilkS) (width 0.12))
  (fp_line (start 6.6 3.65) (end 6.6 -3.65) (layer F.SilkS) (width 0.12))
  (fp_line (start 6.9 3.95) (end 6.9 -3.95) (layer F.CrtYd) (width 0.12))
  (fp_line (start -6.9 3.95) (end -6.9 -3.95) (layer F.CrtYd) (width 0.12))
  (fp_line (start 6.9 3.95) (end -6.9 3.95) (layer F.CrtYd) (width 0.12))
  (fp_line (start 6.9 -3.95) (end -6.9 -3.95) (layer F.CrtYd) (width 0.12))
  (pad "1" thru_hole circle (at -4.7 0) (size 3.5 3.5) (drill 2.1) (layers *.Cu *.Mask) (tstamp c86d7b61-7279-4b78-a9af-4f584390081c))
  (pad "2" thru_hole circle (at 0 0) (size 3.5 3.5) (drill 2.1) (layers *.Cu *.Mask) (tstamp c86d7b61-7279-4b78-a9af-4f584390081c))
  (pad "3" thru_hole circle (at 4.7 0) (size 3.5 3.5) (drill 2.1) (layers *.Cu *.Mask) (tstamp c86d7b61-7279-4b78-a9af-4f584390081c))
)
